{
  "project_info": {
    "project_number": "682942885004",
    "project_id": "projeto3-3991e",
    "storage_bucket": "projeto3-3991e.appspot.com"
  },
  "client": [
    {
      "client_info": {
        "mobilesdk_app_id": "1:682942885004:android:df0f761dbf8f1aab991fa9",
        "android_client_info": {
          "package_name": "com.projeto3"
        }
      },
      "oauth_client": [
        {
          "client_id": "682942885004-e7m79rnk8hn7f753b0lcp21lprmtej7t.apps.googleusercontent.com",
          "client_type": 1,
          "android_info": {
            "package_name": "com.projeto3",
            "certificate_hash": "5e8f16062ea3cd2c4a0d547876baa6f38cabf625"
          }
        },
        {
          "client_id": "682942885004-0n1h7g8jgqjh36harr7r369n9rnaprr3.apps.googleusercontent.com",
          "client_type": 3
        }
      ],
      "api_key": [
        {
          "current_key": "AIzaSyBaWVfcksjvEnA4K3WdxxVctK9GoUvBSk0"
        }
      ],
      "services": {
        "appinvite_service": {
          "other_platform_oauth_client": [
            {
              "client_id": "682942885004-0n1h7g8jgqjh36harr7r369n9rnaprr3.apps.googleusercontent.com",
              "client_type": 3
            }
          ]
        }
      }
    }
  ],
  "configuration_version": "1"
}